system
   name: Formamide
   charge: 0
end system

do
   ground state
end do

memory
   available: 16
end memory

solver cholesky
   threshold: 1.0d-12
end solver cholesky

solver scf
   algorithm:          scf
   energy threshold:   1.0d-11
   gradient threshold: 1.0d-11
end solver scf

solver cc gs
   energy threshold: 1.0d-11
   omega threshold:  1.0d-11
end solver cc gs

method
   hf
   ccsd
end method

frozen orbitals
   hf
end frozen orbitals


active atoms
   selection type: range
   ccsd: [3,4]
end active atoms

geometry
basis: STO-3G
  H   -0.769900   -1.230070   -0.047420
  H    0.712170    1.269620   -0.047420
  H   -0.980990    1.067370   -0.047420
  C    0.082620   -0.648490   -0.047420
  O    1.166230   -1.229710   -0.047420
  N   -0.076030    0.679720   -0.047420
end geometry

