system
   name: 2 H2O
   charge: 0
end system

do
   ground state
   excited state
end do

memory
   available: 8
end memory

solver cholesky
   threshold: 1.0d-12
end solver cholesky

solver scf
   algorithm:          scf-diis
   energy threshold:   1.0d-11
   gradient threshold: 1.0d-11
end solver scf

method
   hf
   mlcc2
end method

solver cc gs
   omega threshold:  1.0d-11
   energy threshold: 1.0d-11
end solver cc gs

solver cc es
   algorithm:          davidson
   singlet states:     4
   residual threshold: 1.0d-11
   energy threshold:   1.0d-11
   right eigenvectors
end solver cc es

active atoms
   selection type: list
   cc2: {3}
   ccs: {1,2}
end active atoms

frozen orbitals
   core
   hf
end frozen orbitals

mlcc
   cc2 orbitals: cholesky-pao
   cholesky threshold: 1.0d-1
end mlcc

geometry
basis: cc-pVDZ
 H          0.86681        0.60144        5.00000
 H         -0.86681        0.60144        5.00000
 O          0.00000       -0.07579        5.00000
 H          0.86681        0.60144        0.00000
 H         -0.86681        0.60144        0.00000
 O          0.00000       -0.07579        0.00000
end geometry
