


                       eT - a coupled cluster program 
       Original authors: Sarai D. Folkestad, Eirik F. Kjønstad, and Henrik Koch

  ----------------------------------------------------------------------------------
   Author:                Contribution(s):
  ----------------------------------------------------------------------------------
   Josefine H. Andersen   first order properties
   Sarai D. Folkestad     program design, HF, CCS, CC2, CCSD, libint-interface,
                          Cholesky decomposition, Davidson-tool, CVS, DIIS-tool
                          zeroth order properties, first order properties, IP
                          frozen core, MLCC2
   Tommaso Giovannini     QM/MM
   Linda Goletto          CC2
   Tor S. Haugland        SAD
   Eirik F. Kjønstad      program design, HF, UHF, CCS, CC2, CCSD, DIIS-tool,
                          Cholesky decomposition, Libint-interface, Davidson-tool
                          zeroth order properties, first order properties, SAD   
                          BFGS-tool                                              
   Rolf H. Myhre          CC3, Runtest-interface, launch script, file system
   Alexander Paul         CC2, CC3, first order properties
   Andreas Skeidsvoll     MP2
   Åsmund H. Tveten       HF
  ----------------------------------------------------------------------------------
   Other contributors: A. Balbi, M. Scavino

  Running on 4 OMP threads

  Memory available for calculation:         8 GB

  - Molecular system specifications:

     Name:         h2o-he
     Charge:       0
     Multiplicity: 1

     Pure basis functions:         38
     Cartesian basis functions:    40
     Primitive basis functions:    84

     Nuclear repulsion energy (a.u.):             48.518317619727
     Bohr/angstrom value (CODATA 2010):            0.529177210920


    ====================================================================
                               Geometry (Å)
    ====================================================================
    Atom         X                Y                Z             Basis
    ====================================================================
     H    0.866810000000   0.601440000000   5.000000000000       cc-pvdz
     F   -0.866810000000   0.601440000000   5.000000000000       cc-pvdz
     O    0.000000000000  -0.075790000000   5.000000000000       cc-pvdz
     He   0.000000000000   0.000000000000   7.500000000000       cc-pvdz
    ====================================================================
                             Geometry (a.u.)
    ====================================================================
    Atom         X                Y                Z             Basis
    ====================================================================
     H    1.638033502034   1.136556880358   9.448630622825       cc-pvdz
     F   -1.638033502034   1.136556880358   9.448630622825       cc-pvdz
     O    0.000000000000  -0.143222342981   9.448630622825       cc-pvdz
     He   0.000000000000   0.000000000000  14.172945934238       cc-pvdz
    ====================================================================

  - Cholesky decomposition of AO overlap to get linearly independent orbitals:

     Number of occupied orbitals:        10
     Number of virtual orbitals:         28
     Number of molecular orbitals:       38
     Number of atomic orbitals:          38

  - SAD generation

  - Molecular system specifications:

     Name:         sad_cc-pvdz_F
     Charge:       0
     Multiplicity: 2

     Pure basis functions:         14
     Cartesian basis functions:    15
     Primitive basis functions:    35

     Nuclear repulsion energy (a.u.):              0.000000000000
     Bohr/angstrom value (CODATA 2010):            0.529177210920


    ====================================================================
                               Geometry (Å)
    ====================================================================
    Atom         X                Y                Z             Basis
    ====================================================================
     F   -0.866810000000   0.601440000000   5.000000000000       cc-pvdz
    ====================================================================
                             Geometry (a.u.)
    ====================================================================
    Atom         X                Y                Z             Basis
    ====================================================================
     F   -1.638033502034   1.136556880358   9.448630622825       cc-pvdz
    ====================================================================

  - Cholesky decomposition of AO overlap to get linearly independent orbitals:

  Requested fractional uniform valence. Valence electrons will be
  distributed evenly in the highest molecular orbitals (if plural).


  :: Self-consistent field solver
  :: E. F. Kjønstad and S, D. Folkestad, 2018

  Warning: We recommend to use the SCF-DIIS algorithm instead, which supports 
  a gradient threshold and typically converges much faster. Use only when 
  absolutely necessary!

  A Roothan-Hall self-consistent field solver. In each iteration, the Roothan-Hall 
  equation (or equations for unrestricted HF theory) are solved to provide 
  the next orbital coefficients. From the new orbitals, a new density provides 
  the next Fock matrix. The cycle repeats until the solution is self-consistent 
  (as measured by the energy change).

     Coulomb screening threshold:   0.1000E-14
     Exchange screening threshold:  0.1000E-14
     ERI integral precision:        0.1000E-29

  Alpha orbital energies:

    1  -26.460869952302      2   -1.691151895567      3   -0.784844616344
    4   -0.784844616344      5   -0.784844616344      6    1.341657704035
    7    1.341657704035      8    1.341657704035      9    1.700850296683
   10    3.855935865058     11    3.855935865058     12    3.855935865058
   13    3.855935865058     14    3.855935865058

  Beta orbital energies:

    1  -26.398851236012      2   -1.479977478931      3   -0.412453618439
    4   -0.412453618439      5   -0.412453618439      6    1.441715256064
    7    1.441715256064      8    1.441715256064      9    1.762915056239
   10    3.964701883256     11    3.964701883256     12    3.964701883256
   13    3.964701883256     14    3.964701883256

  Printing 14 MOs (out of the total 14 MOs).

  - Printing molecular orbitals: 1, 2, 3, 4

     AO   Atom          1           2           3           4
    ---------------------------------------------------------------
     1   1 F (s)   -0.987854   -0.278689   -0.000000    0.000000
     2   1 F (s)    0.043002   -1.084759   -0.000000    0.000000
     3   1 F (s)   -0.012624    0.080820   -0.000000    0.000000
     4   1 F (p)    0.000000    0.000000   -0.003808   -0.260577
     5   1 F (p)   -0.000000   -0.000000   -0.016377   -1.025606
     6   1 F (p)   -0.000000   -0.000000    1.058191   -0.016811
     7   1 F (p)   -0.000000   -0.000000    0.000477    0.032651
     8   1 F (p)    0.000000    0.000000    0.002052    0.128512
     9   1 F (p)    0.000000    0.000000   -0.132595    0.002106
    10   1 F (d)   -0.000000    0.000000   -0.000000    0.000000
    11   1 F (d)   -0.000000    0.000000   -0.000000   -0.000000
    12   1 F (d)    0.000000   -0.000000    0.000000   -0.000000
    13   1 F (d)    0.000000   -0.000000   -0.000000   -0.000000
    14   1 F (d)   -0.000000    0.000000    0.000000    0.000000
    ---------------------------------------------------------------

  - Printing molecular orbitals: 5, 6, 7, 8

     AO   Atom          5           6           7           8
    ---------------------------------------------------------------
     1   1 F (s)   -0.000000   -0.583702    0.000000   -0.000000
     2   1 F (s)   -0.000000   -1.222848    0.000000   -0.000000
     3   1 F (s)   -0.000000    1.627347   -0.000000    0.000000
     4   1 F (p)   -1.025737    0.000000   -0.000000   -0.000000
     5   1 F (p)    0.260605   -0.000000    0.000000    0.000000
     6   1 F (p)    0.000342   -0.000000   -0.000000    0.000000
     7   1 F (p)    0.128528   -0.000000    0.000000    0.000000
     8   1 F (p)   -0.032655    0.000000   -0.000000   -0.000000
     9   1 F (p)   -0.000043    0.000000    0.000000   -0.000000
    10   1 F (d)   -0.000000    0.000000   -0.000000    0.000000
    11   1 F (d)    0.000000    0.000000   -0.891450   -0.097019
    12   1 F (d)   -0.000000   -0.000000   -0.105867   -0.083651
    13   1 F (d)   -0.000000    0.000000    0.197384    0.768345
    14   1 F (d)    0.000000   -0.000000   -0.393890    0.627085
    ---------------------------------------------------------------

  - Printing molecular orbitals: 9, 10, 11, 12

     AO   Atom          9          10          11          12
    ---------------------------------------------------------------
     1   1 F (s)   -0.000000   -0.000000    0.000000    0.000000
     2   1 F (s)   -0.000000   -0.000000    0.000000    0.000000
     3   1 F (s)    0.000000    0.000000   -0.000000   -0.000000
     4   1 F (p)   -0.000000   -0.000000   -0.000000   -0.237943
     5   1 F (p)   -0.000000    0.000000   -0.000000   -0.374010
     6   1 F (p)    0.000000   -0.000000    0.000000    0.000857
     7   1 F (p)    0.000000    0.000000    0.000000    0.611771
     8   1 F (p)    0.000000   -0.000000    0.000000    0.961611
     9   1 F (p)   -0.000000    0.000000   -0.000000   -0.002203
    10   1 F (d)   -1.000000   -0.000000    0.000000    0.000000
    11   1 F (d)    0.000000   -0.184055    0.402527   -0.000000
    12   1 F (d)    0.000000    0.972461    0.190039   -0.000000
    13   1 F (d)    0.000000   -0.031242    0.608038   -0.000000
    14   1 F (d)    0.000000    0.139526   -0.657379    0.000000
    ---------------------------------------------------------------

  - Printing molecular orbitals: 13, 14

     AO   Atom         13          14
    ---------------------------------------------------------------
     1   1 F (s)   -0.000000    0.000000
     2   1 F (s)   -0.000000    0.000000
     3   1 F (s)    0.000000   -0.000000
     4   1 F (p)    0.052448    0.370315
     5   1 F (p)   -0.032361   -0.235733
     6   1 F (p)    0.438979   -0.061622
     7   1 F (p)   -0.134847   -0.952112
     8   1 F (p)    0.083203    0.606091
     9   1 F (p)   -1.128654    0.158435
    10   1 F (d)   -0.000000   -0.000000
    11   1 F (d)   -0.000000   -0.000000
    12   1 F (d)    0.000000    0.000000
    13   1 F (d)   -0.000000    0.000000
    14   1 F (d)   -0.000000   -0.000000
    ---------------------------------------------------------------
     Generated SAD in cc-pvdz for F

  - Cleaning up Self-consistent field solver

  Requested MO transformation of Fock matrix, but this is not yet implemented for UHF                                     

  - Molecular system specifications:

     Name:         sad_cc-pvdz_He
     Charge:       0
     Multiplicity: 1

     Pure basis functions:          5
     Cartesian basis functions:     5
     Primitive basis functions:     7

     Nuclear repulsion energy (a.u.):              0.000000000000
     Bohr/angstrom value (CODATA 2010):            0.529177210920


    ====================================================================
                               Geometry (Å)
    ====================================================================
    Atom         X                Y                Z             Basis
    ====================================================================
     He   0.000000000000   0.000000000000   7.500000000000       cc-pvdz
    ====================================================================
                             Geometry (a.u.)
    ====================================================================
    Atom         X                Y                Z             Basis
    ====================================================================
     He   0.000000000000   0.000000000000  14.172945934238       cc-pvdz
    ====================================================================

  - Cholesky decomposition of AO overlap to get linearly independent orbitals:

  Requested fractional uniform valence. Valence electrons will be
  distributed evenly in the highest molecular orbitals (if plural).


  :: Self-consistent field solver
  :: E. F. Kjønstad and S, D. Folkestad, 2018

  Warning: We recommend to use the SCF-DIIS algorithm instead, which supports 
  a gradient threshold and typically converges much faster. Use only when 
  absolutely necessary!

  A Roothan-Hall self-consistent field solver. In each iteration, the Roothan-Hall 
  equation (or equations for unrestricted HF theory) are solved to provide 
  the next orbital coefficients. From the new orbitals, a new density provides 
  the next Fock matrix. The cycle repeats until the solution is self-consistent 
  (as measured by the energy change).

     Coulomb screening threshold:   0.1000E-14
     Exchange screening threshold:  0.1000E-14
     ERI integral precision:        0.1000E-29

  Alpha orbital energies:

    1   -0.914147925930      2    1.397441704237      3    2.524372025898
    4    2.524372025898      5    2.524372025898

  Beta orbital energies:

    1   -0.914147925930      2    1.397441704237      3    2.524372025898
    4    2.524372025898      5    2.524372025898

  Printing 5 MOs (out of the total 5 MOs).

  - Printing molecular orbitals: 1, 2, 3, 4

     AO   Atom          1           2           3           4
    ---------------------------------------------------------------
     1   1 He(s)   -0.773126   -1.036817   -0.000000    0.000000
     2   1 He(s)   -0.311370    1.255293    0.000000    0.000000
     3   1 He(p)    0.000000    0.000000    0.000000    0.000000
     4   1 He(p)    0.000000    0.000000    0.000000    1.000000
     5   1 He(p)    0.000000    0.000000    1.000000    0.000000
    ---------------------------------------------------------------

  - Printing molecular orbitals: 5     AO   Atom          5
    ---------------------------------------------------------------
     1   1 He(s)    0.000000
     2   1 He(s)    0.000000
     3   1 He(p)    1.000000
     4   1 He(p)    0.000000
     5   1 He(p)    0.000000
    ---------------------------------------------------------------
     Generated SAD in cc-pvdz for He

  - Cleaning up Self-consistent field solver

  Requested MO transformation of Fock matrix, but this is not yet implemented for UHF                                     


  :: MO Self-consistent field DIIS Hartree-Fock solver
  :: E. F. Kjønstad and S, D. Folkestad, 2018

  A DIIS-accelerated Roothan-Hall self-consistent field solver. A least-square 
  DIIS fit is performed on the previous Fock matrices and associated gradients. 
  Following the Roothan-Hall update of the density, the DIIS-fitted Fock matrix 
  is used to get the next orbital coefficients.

  - Hartree-Fock solver settings:
     DIIS dimension:                8
     Energy threshold:              0.1000E-11
     Gradient threshold:            0.1000E-11

     Coulomb screening threshold:   0.1000E-14
     Exchange screening threshold:  0.1000E-14
     ERI integral precision:        0.1000E-29

  - Setting initial AO density to SAD

     Energy of initial guess:              -178.316362504253
     Number of electrons in guess:           20.000000000000

  Iteration       Energy (a.u.)      Max(grad.)    Delta E (a.u.)
  ---------------------------------------------------------------
     1          -177.452442672058     0.2245E+00     0.1775E+03
     2          -177.479038695767     0.5410E-01     0.2660E-01
     3          -177.480033194129     0.1671E-01     0.9945E-03
     4          -177.480160941097     0.4789E-02     0.1277E-03
     5          -177.480174930389     0.1714E-02     0.1399E-04
     6          -177.480176282825     0.3261E-03     0.1352E-05
     7          -177.480176366012     0.1307E-03     0.8319E-07
     8          -177.480176376348     0.3525E-04     0.1034E-07
     9          -177.480176377179     0.5238E-05     0.8303E-09
    10          -177.480176377204     0.2680E-05     0.2547E-10
    11          -177.480176377210     0.8224E-06     0.5826E-11
    12          -177.480176377210     0.1920E-06     0.3979E-12
    13          -177.480176377211     0.5325E-07     0.8527E-13
    14          -177.480176377211     0.9548E-08     0.1137E-12
    15          -177.480176377211     0.4457E-08     0.5684E-13
    16          -177.480176377211     0.2532E-08     0.5684E-13
    17          -177.480176377211     0.6899E-09     0.5684E-13
    18          -177.480176377211     0.4213E-09     0.2842E-13
    19          -177.480176377211     0.1299E-09     0.2842E-13
    20          -177.480176377211     0.2922E-10     0.5684E-13
    21          -177.480176377211     0.5540E-11     0.5684E-13
    22          -177.480176377211     0.2167E-11     0.0000E+00
    23          -177.480176377210     0.6682E-12     0.8527E-13
  ---------------------------------------------------------------

  Convergence criterion met in 23 iterations!

  - Summary of HF wavefunction energetics (a.u.):

     HOMO-LUMO gap:                  0.600136348376
     Nuclear repulsion energy:      48.518317619727
     Electronic energy:           -225.998493996938
     Total energy:                -177.480176377210

  - Molecular orbital energies:

    1  -26.334215397010      2  -20.644676143385      3   -1.894514195179
    4   -1.204323614939      5   -0.910581317587      6   -0.866359982048
    7   -0.832531025223      8   -0.790125272691      9   -0.497921814631
   10   -0.439636463015     11    0.160499885361     12    0.548524783470
   13    0.716123096552     14    1.106561922004     15    1.130678945486
   16    1.195125644619     17    1.332305214083     18    1.423088812983
   19    1.453320735213     20    1.486906665149     21    1.561381025899
   22    1.686298886877     23    1.771732504120     24    2.108007790819
   25    2.501253825884     26    2.530943514170     27    2.531186114994
   28    2.601426569357     29    2.725832254866     30    2.888293377077
   31    3.061115047190     32    3.534199119735     33    3.762918741788
   34    3.962288761102     35    4.000546434665     36    4.553973955053
   37    4.580623650142     38    5.083709277158

  Printing 20 MOs (out of the total 38 MOs).

  - Printing molecular orbitals: 1, 2, 3, 4

     AO   Atom          1           2           3           4
    ---------------------------------------------------------------
     1   1 H (s)    0.000260    0.000489    0.035525    0.136826
     2   1 H (s)   -0.000305    0.000637   -0.007019    0.001800
     3   1 H (p)    0.000000    0.000008   -0.008974   -0.019571
     4   1 H (p)   -0.000017    0.000151   -0.005704   -0.016722
     5   1 H (p)    0.000001    0.000002    0.000012    0.000036
     6   2 F (s)   -1.001049   -0.000029   -0.002982    0.000567
     7   2 F (s)   -0.001521    0.000118    0.393331   -0.295138
     8   2 F (s)    0.004892    0.000104    0.370069   -0.423250
     9   2 F (p)   -0.001399   -0.000075    0.125216    0.182965
    10   2 F (p)    0.001020    0.000038   -0.091242   -0.117621
    11   2 F (p)   -0.000001    0.000001    0.000035    0.000132
    12   2 F (p)    0.001567   -0.000237    0.047239    0.081754
    13   2 F (p)   -0.001140    0.000349   -0.030449   -0.052164
    14   2 F (p)    0.000001    0.000002    0.000053    0.000049
    15   2 F (d)   -0.000095    0.000481   -0.016521   -0.013914
    16   2 F (d)   -0.000000   -0.000001   -0.000009   -0.000009
    17   2 F (d)   -0.000072    0.000284   -0.010769   -0.008734
    18   2 F (d)    0.000000    0.000001    0.000007    0.000014
    19   2 F (d)    0.000036   -0.000129    0.005355    0.006195
    20   3 O (s)    0.000019    1.000965   -0.002192    0.004148
    21   3 O (s)    0.000189    0.001420    0.258595    0.378011
    22   3 O (s)   -0.002151   -0.003397    0.145581    0.404380
    23   3 O (p)    0.000000   -0.000941   -0.127390    0.073492
    24   3 O (p)   -0.000029    0.002207    0.114249    0.011948
    25   3 O (p)    0.000002    0.000000    0.000091    0.000444
    26   3 O (p)    0.001008   -0.000041   -0.012829    0.031880
    27   3 O (p)   -0.000840   -0.001164    0.013090   -0.003882
    28   3 O (p)   -0.000005   -0.000010   -0.000032    0.000132
    29   3 O (d)   -0.000308   -0.000281   -0.027216    0.006655
    30   3 O (d)   -0.000000   -0.000000    0.000002    0.000013
    31   3 O (d)   -0.000142    0.000077   -0.016635   -0.000226
    32   3 O (d)    0.000000    0.000001   -0.000001    0.000001
    33   3 O (d)    0.000071    0.000002    0.003565   -0.001935
    34   4 He(s)   -0.000009   -0.000052    0.000762    0.006337
    35   4 He(s)    0.000030    0.000077    0.001270    0.006137
    36   4 He(p)    0.000001   -0.000004   -0.000034    0.000119
    37   4 He(p)    0.000002   -0.000000    0.000047   -0.000063
    38   4 He(p)   -0.000011   -0.000009   -0.000317   -0.000628
    ---------------------------------------------------------------

  - Printing molecular orbitals: 5, 6, 7, 8

     AO   Atom          5           6           7           8
    ---------------------------------------------------------------
     1   1 H (s)   -0.005401    0.203607    0.000931   -0.079547
     2   1 H (s)   -0.009765    0.049948   -0.002797   -0.053414
     3   1 H (p)    0.001270   -0.028023    0.000033    0.006115
     4   1 H (p)    0.001142   -0.017041    0.000226    0.015757
     5   1 H (p)   -0.002599   -0.000138    0.009987   -0.000089
     6   2 F (s)    0.000787   -0.003255    0.000087    0.004922
     7   2 F (s)   -0.004821    0.048353   -0.000689   -0.059271
     8   2 F (s)   -0.013113    0.101371   -0.001555   -0.133136
     9   2 F (p)    0.017052    0.091503    0.008360    0.486841
    10   2 F (p)   -0.022303    0.482269    0.001848   -0.030774
    11   2 F (p)   -0.068277   -0.005786    0.542069   -0.006112
    12   2 F (p)    0.009621    0.061555    0.005263    0.306382
    13   2 F (p)   -0.012637    0.288861    0.001166   -0.016325
    14   2 F (p)   -0.041842   -0.003542    0.327570   -0.003710
    15   2 F (d)   -0.001511    0.017373   -0.000176   -0.015044
    16   2 F (d)    0.002102    0.000176   -0.014594    0.000157
    17   2 F (d)   -0.001171    0.005576   -0.000215   -0.011416
    18   2 F (d)   -0.002993   -0.000229    0.020737   -0.000214
    19   2 F (d)    0.000007    0.019035    0.000382    0.016686
    20   3 O (s)    0.001282   -0.006830    0.000193    0.008998
    21   3 O (s)    0.007244   -0.022810   -0.000633   -0.125365
    22   3 O (s)   -0.001139    0.015721   -0.002924   -0.302672
    23   3 O (p)   -0.019024    0.325821   -0.001352   -0.240303
    24   3 O (p)    0.007287    0.154432    0.006410    0.336527
    25   3 O (p)   -0.057278   -0.003986    0.354900   -0.003541
    26   3 O (p)   -0.004161    0.123051    0.000564   -0.066307
    27   3 O (p)    0.002653    0.093387    0.003244    0.159965
    28   3 O (p)   -0.033976   -0.002365    0.193122   -0.001485
    29   3 O (d)   -0.001750    0.017076   -0.000370   -0.033545
    30   3 O (d)   -0.003582   -0.000281    0.025790   -0.000265
    31   3 O (d)   -0.002067    0.002771   -0.000497   -0.018277
    32   3 O (d)    0.002785    0.000241   -0.021879    0.000240
    33   3 O (d)    0.000641   -0.030328   -0.000405   -0.015935
    34   4 He(s)   -0.583730   -0.023058   -0.095392    0.027146
    35   4 He(s)   -0.505295   -0.020282   -0.080199    0.020542
    36   4 He(p)   -0.000356    0.000158   -0.000422   -0.000026
    37   4 He(p)   -0.000743    0.000144    0.000114    0.000277
    38   4 He(p)   -0.000229   -0.000001   -0.001885    0.000560
    ---------------------------------------------------------------

  - Printing molecular orbitals: 9, 10, 11, 12

     AO   Atom          9          10          11          12
    ---------------------------------------------------------------
     1   1 H (s)    0.318481    0.000386    0.137554    0.172551
     2   1 H (s)    0.107880    0.003508    1.259472   -0.080945
     3   1 H (p)   -0.027652   -0.000193   -0.005408   -0.006803
     4   1 H (p)   -0.016118   -0.000159   -0.001608    0.052594
     5   1 H (p)    0.000029   -0.023301    0.000236    0.000037
     6   2 F (s)    0.003040    0.000000    0.005805    0.025241
     7   2 F (s)    0.009502   -0.000178   -0.006615   -0.168172
     8   2 F (s)   -0.009637   -0.000717   -0.100585   -1.402986
     9   2 F (p)   -0.241513   -0.000200    0.084113   -0.269657
    10   2 F (p)   -0.393279   -0.000616    0.004541    0.213525
    11   2 F (p)   -0.000918    0.439480   -0.000005   -0.000360
    12   2 F (p)   -0.193928   -0.000306    0.097089   -0.803606
    13   2 F (p)   -0.313409   -0.000446    0.016549    0.672909
    14   2 F (p)   -0.000853    0.374475   -0.000820    0.000238
    15   2 F (d)   -0.001292    0.000013    0.001957   -0.000023
    16   2 F (d)   -0.000016    0.004602   -0.000100    0.000018
    17   2 F (d)   -0.001295    0.000036    0.000327   -0.000539
    18   2 F (d)    0.000003   -0.005131    0.000133   -0.000019
    19   2 F (d)    0.000918   -0.000006   -0.009532   -0.004186
    20   3 O (s)    0.002118   -0.000016    0.031898   -0.039367
    21   3 O (s)   -0.103246   -0.000657   -0.072135    0.092940
    22   3 O (s)   -0.256226   -0.001815   -0.687931    1.318622
    23   3 O (p)    0.169829   -0.000188   -0.230023   -0.315226
    24   3 O (p)    0.399149    0.000525   -0.186052    0.150283
    25   3 O (p)    0.001198   -0.583509    0.004543   -0.000412
    26   3 O (p)    0.123187   -0.000946   -0.390515   -1.168828
    27   3 O (p)    0.290070    0.000314   -0.287912    0.827256
    28   3 O (p)    0.001067   -0.473382    0.000503    0.000229
    29   3 O (d)    0.010545   -0.000034   -0.005318    0.020072
    30   3 O (d)    0.000032   -0.009008    0.000109   -0.000025
    31   3 O (d)   -0.012453    0.000065    0.001113   -0.001332
    32   3 O (d)    0.000008   -0.007103   -0.000099    0.000027
    33   3 O (d)    0.005607    0.000008    0.009624   -0.007561
    34   4 He(s)    0.002012    0.022051   -0.029028   -0.011702
    35   4 He(s)   -0.004279    0.020068   -0.040809    0.005193
    36   4 He(p)    0.000191   -0.000575    0.001604   -0.002826
    37   4 He(p)    0.000387    0.000577    0.001176    0.001438
    38   4 He(p)    0.000485    0.002788   -0.003610   -0.003634
    ---------------------------------------------------------------

  - Printing molecular orbitals: 13, 14, 15, 16

     AO   Atom         13          14          15          16
    ---------------------------------------------------------------
     1   1 H (s)    1.219107   -0.038665    0.002783    0.696078
     2   1 H (s)   -1.087950    0.057679   -0.082831    0.080568
     3   1 H (p)    0.174347    0.014094    0.128746   -0.320992
     4   1 H (p)    0.128859   -0.015878   -0.076406   -0.104743
     5   1 H (p)   -0.000467   -0.151096    0.038309   -0.011069
     6   2 F (s)    0.007783   -0.000527   -0.010087   -0.046204
     7   2 F (s)    0.088806   -0.006510   -0.039930   -0.085269
     8   2 F (s)    0.300799    0.133971    0.690242    0.312955
     9   2 F (p)    0.098168   -0.043609   -0.172029    0.010832
    10   2 F (p)    0.051444    0.037730    0.249019    0.174994
    11   2 F (p)    0.001069    0.154734   -0.031208    0.004467
    12   2 F (p)    0.226287    0.016809    0.083261    0.371928
    13   2 F (p)   -0.074349   -0.026965   -0.189663   -0.064665
    14   2 F (p)   -0.001434    0.030649   -0.010093    0.003882
    15   2 F (d)   -0.001169   -0.019770   -0.091005    0.025154
    16   2 F (d)    0.000002   -0.018061    0.003962   -0.000780
    17   2 F (d)   -0.002321   -0.011813   -0.049701   -0.001847
    18   2 F (d)   -0.000009    0.020565   -0.004404    0.000786
    19   2 F (d)   -0.020336    0.004279    0.019284    0.014122
    20   3 O (s)   -0.051983    0.054389    0.132759   -0.119995
    21   3 O (s)   -0.192449    0.132593    0.317248   -0.383016
    22   3 O (s)    0.040508   -0.195121   -0.568404   -0.331506
    23   3 O (p)   -0.212742   -0.140784   -0.714582    0.361537
    24   3 O (p)   -0.335126    0.103985    0.567091    0.615873
    25   3 O (p)   -0.000681    0.824153   -0.181633    0.035667
    26   3 O (p)    0.153651    0.189419    0.984880   -0.759412
    27   3 O (p)   -0.163167   -0.126894   -0.681100   -1.253726
    28   3 O (p)    0.002037   -0.904075    0.202069   -0.040934
    29   3 O (d)    0.065230    0.003641    0.031155    0.045667
    30   3 O (d)    0.000059    0.016687   -0.003291    0.000363
    31   3 O (d)   -0.055880    0.002099    0.017788   -0.004948
    32   3 O (d)   -0.000089   -0.039221    0.009062   -0.002108
    33   3 O (d)    0.029191   -0.001201   -0.004130   -0.051255
    34   4 He(s)    0.084115    0.376975   -0.014149   -0.029487
    35   4 He(s)   -0.023245   -0.328163    0.013334    0.029554
    36   4 He(p)   -0.004511    0.001186    0.004548   -0.004462
    37   4 He(p)   -0.003738    0.001037   -0.004331   -0.006571
    38   4 He(p)    0.012410    0.039946   -0.001517    0.002436
    ---------------------------------------------------------------

  - Printing molecular orbitals: 17, 18, 19, 20

     AO   Atom         17          18          19          20
    ---------------------------------------------------------------
     1   1 H (s)    0.032207   -0.071719    0.165598    0.031540
     2   1 H (s)   -0.030516   -0.201422   -0.269685    0.197235
     3   1 H (p)   -0.368576    0.052647   -0.105586   -0.021184
     4   1 H (p)    0.371909    0.036556    0.165800   -0.055929
     5   1 H (p)    0.032214   -0.514693   -0.113357    0.055126
     6   2 F (s)   -0.005247    0.003933   -0.058543    0.013759
     7   2 F (s)    0.073304    0.026873   -0.200083    0.037641
     8   2 F (s)    0.777943    0.072040   -0.068956   -0.004008
     9   2 F (p)   -0.731430   -0.107521    0.144718    0.017790
    10   2 F (p)   -0.103421    0.152065   -0.781137    0.062217
    11   2 F (p)    0.005491   -0.344872   -0.137740   -0.809647
    12   2 F (p)    1.242399    0.142402   -0.362736    0.028700
    13   2 F (p)   -0.197966   -0.260645    1.191206   -0.085497
    14   2 F (p)   -0.015637    0.455336    0.173289    1.065494
    15   2 F (d)   -0.006701    0.003462   -0.014075   -0.001850
    16   2 F (d)    0.000974   -0.006338   -0.000032    0.016706
    17   2 F (d)   -0.016862    0.007729   -0.012187   -0.004650
    18   2 F (d)   -0.000522   -0.005079   -0.002995   -0.019842
    19   2 F (d)    0.003966    0.000279   -0.005833    0.000755
    20   3 O (s)    0.055067   -0.093571   -0.094472    0.104001
    21   3 O (s)    0.120398   -0.202286   -0.262139    0.239205
    22   3 O (s)   -1.005565    0.181170    0.869242   -0.401286
    23   3 O (p)   -0.122090   -0.094927   -0.134551    0.089551
    24   3 O (p)   -0.047636   -0.052346    0.161346    0.000325
    25   3 O (p)   -0.038946    0.201003    0.018046   -0.025577
    26   3 O (p)    0.546456    0.271062   -0.087742   -0.151642
    27   3 O (p)   -0.588503    0.139086   -0.297100   -0.063513
    28   3 O (p)    0.045310   -0.249453   -0.040639   -0.281506
    29   3 O (d)    0.090445    0.026621   -0.079907    0.002207
    30   3 O (d)    0.001515   -0.048065   -0.013057   -0.008823
    31   3 O (d)    0.043197    0.035975   -0.077247   -0.009592
    32   3 O (d)    0.004307   -0.056235   -0.010715    0.024001
    33   3 O (d)   -0.055214   -0.006006    0.019612   -0.000098
    34   4 He(s)    0.099141   -0.778403   -0.068892    0.500367
    35   4 He(s)   -0.097105    0.819472    0.080099   -0.527543
    36   4 He(p)    0.002304   -0.003898   -0.003191   -0.006766
    37   4 He(p)   -0.002129    0.002294   -0.004324    0.007381
    38   4 He(p)    0.004768    0.009910    0.003006   -0.001181
    ---------------------------------------------------------------

  Mismatch in memory according to eT and specified on input:

     Memory available (eT):          7.9999 GB
     Memory available (input):       8.0000 GB

  Warning: Deallocations may be missing or specified with incorrect dimensionalities.

  eT terminated successfully!
