system
   name: H2O He
   charge: 0
end system

do
   ground state
   excited state
end do

memory
   available: 8
end memory

solver cholesky
   threshold: 1.0d-12
end solver cholesky

solver scf
   restart
   algorithm:          scf-diis
   energy threshold:   1.0d-12
   gradient threshold: 1.0d-12
end solver scf

method
   hf
   mlcc2
end method

solver cc gs
   restart
   omega threshold:  1.0d-11
   energy threshold: 1.0d-11
end solver cc gs

solver cc es
   restart
   algorithm:          diis
   singlet states:     4
   residual threshold: 1.0d-11
   energy threshold:   1.0d-11
   right eigenvectors
end solver cc es

mlcc
   cnto restart
   cc2 orbitals: cnto-approx
   cnto occupied cc2: 2
   cnto states: {1,2,3,4}
end mlcc

geometry
basis: cc-pVDZ
 H          0.86681        0.60144        5.00000
 H         -0.86681        0.60144        5.00000
 O          0.00000       -0.07579        5.00000
 He         0.10000       -0.02000        7.53000
end geometry
